// 02 - Default genrated by blender2ogre 0.6.0

material 02 - Default 
{
    receive_shadows on 

    technique
    {
        pass 02 - Default
        {
            ambient 0.5882353186607361 0.5882353186607361 0.5882353186607361 1.0
            diffuse 0.4705882619409003 0.4705882619409003 0.4705882619409003 1.0
            specular 0.4490196108818054 0.4490196108818054 0.4490196108818054 1.0 12.5
            emissive 0.0 0.0 0.0 1.0

            alpha_to_coverage off
            colour_write on
            cull_hardware clockwise
            depth_check on
            depth_func less_equal
            depth_write on
            illumination_stage 
            light_clip_planes off
            light_scissor off
            lighting on
            normalise_normals off
            polygon_mode solid
            scene_blend one zero
            scene_blend_op add
            shading gouraud
            transparent_sorting on

        }
    }
}
