// Material__21 genrated by blender2ogre 0.6.0

material Material__21 
{
    receive_shadows on 

    technique
    {
        pass Material__21
        {
            ambient 0.013702086172997952 0.013702086172997952 0.013702086172997952 1.0
            diffuse 0.010961669101739957 0.010961669101739957 0.010961669101739957 1.0
            specular 0.7049689292907715 0.7049689292907715 0.7049689292907715 1.0 12.5
            emissive 0.0 0.0 0.0 1.0

            alpha_to_coverage off
            colour_write on
            cull_hardware clockwise
            depth_check on
            depth_func less_equal
            depth_write on
            illumination_stage 
            light_clip_planes off
            light_scissor off
            lighting on
            normalise_normals off
            polygon_mode solid
            scene_blend one zero
            scene_blend_op add
            shading gouraud
            transparent_sorting on

        }
    }
}
